<?xml version="1.0" encoding="UTF-8" standalone="no"?>
<!-- Created with Inkscape (http://www.inkscape.org/) -->

<svg
   width="291.16547mm"
   height="209.80038mm"
   viewBox="0 0 291.16547 209.80038"
   version="1.1"
   id="svg27629"
   inkscape:version="1.1.2 (0a00cf5339, 2022-02-04)"
   sodipodi:docname="07_555_monostable_temporel.svg"
   xmlns:inkscape="http://www.inkscape.org/namespaces/inkscape"
   xmlns:sodipodi="http://sodipodi.sourceforge.net/DTD/sodipodi-0.dtd"
   xmlns="http://www.w3.org/2000/svg"
   xmlns:svg="http://www.w3.org/2000/svg">
  <sodipodi:namedview
     id="namedview27631"
     pagecolor="#505050"
     bordercolor="#eeeeee"
     borderopacity="1"
     inkscape:pageshadow="0"
     inkscape:pageopacity="0"
     inkscape:pagecheckerboard="0"
     inkscape:document-units="mm"
     showgrid="false"
     fit-margin-top="0"
     fit-margin-left="0"
     fit-margin-right="0"
     fit-margin-bottom="0"
     inkscape:zoom="4.192802"
     inkscape:cx="339.51043"
     inkscape:cy="84.430412"
     inkscape:window-width="1920"
     inkscape:window-height="1012"
     inkscape:window-x="0"
     inkscape:window-y="0"
     inkscape:window-maximized="1"
     inkscape:current-layer="g26723-0" />
  <defs
     id="defs27626" />
  <g
     inkscape:label="Calque 1"
     inkscape:groupmode="layer"
     id="layer1"
     transform="translate(81.327925,-16.469997)">
    <rect
       style="fill:#ffffff;fill-opacity:1;stroke:none;stroke-width:0.5901;stroke-linecap:round;stroke-linejoin:miter;stroke-miterlimit:4;stroke-dasharray:2.36041, 4.72082;stroke-dashoffset:0"
       id="rect159889-5-4-5"
       width="291.16547"
       height="209.80038"
       x="-81.327927"
       y="16.469997" />
    <g
       id="g26723-0"
       transform="translate(11.672827,-641.46418)">
      <text
         xml:space="preserve"
         style="font-style:normal;font-weight:normal;font-size:10.5833px;line-height:1.25;font-family:sans-serif;letter-spacing:0px;word-spacing:0px;fill:#000000;fill-opacity:1;stroke:none;stroke-width:0.264583"
         x="-9.087676"
         y="681.93878"
         id="text18511-8"><tspan
           sodipodi:role="line"
           id="tspan18509-5"
           style="stroke-width:0.264583"
           x="-9.087676"
           y="681.93878"><tspan
   style="font-size:3.88056px"
   id="tspan23188-0">(Trigger mis à 0)</tspan> </tspan></text>
    </g>
    <g
       id="g175136-9-6-6-9-1-7"
       transform="translate(7.3712853,-72.87776)"
       style="stroke:#000000">
      <text
         xml:space="preserve"
         style="font-size:5.64444px;line-height:1.25;font-family:sans-serif;-inkscape-font-specification:sans-serif;letter-spacing:0px;word-spacing:0px;fill:#000000;stroke:#000000;stroke-width:0.264583"
         x="-65.931427"
         y="279.10562"
         id="text172541-5-3-0-1-2-9-8"><tspan
           sodipodi:role="line"
           id="tspan172539-9-3-6-8-0-4-4"
           style="fill:#000000;stroke:#000000;stroke-width:0.264583"
           x="-65.931427"
           y="279.10562">OUT</tspan></text>
    </g>
    <g
       id="g1570-9-8"
       transform="translate(-4.2157047,-510.58453)">
      <path
         style="fill:none;stroke:#000000;stroke-width:0.9;stroke-linecap:round;stroke-linejoin:bevel;stroke-miterlimit:4;stroke-dasharray:none;stroke-opacity:1"
         d="M -44.562601,718.02394 H 178.52117"
         id="path32560-1-9" />
      <path
         style="fill:none;stroke:#000000;stroke-width:0.9;stroke-linecap:round;stroke-linejoin:bevel;stroke-miterlimit:4;stroke-dasharray:none;stroke-opacity:1"
         d="m 178.52117,718.02394 -1.90829,1.10172"
         id="path32755-2-73" />
      <path
         style="fill:none;stroke:#000000;stroke-width:0.9;stroke-linecap:round;stroke-linejoin:bevel;stroke-miterlimit:4;stroke-dasharray:none;stroke-opacity:1"
         d="m 176.61288,716.92222 1.90829,1.10172"
         id="path32755-9-7-6" />
      <text
         xml:space="preserve"
         style="font-style:normal;font-weight:normal;font-size:8.1339px;line-height:1.25;font-family:sans-serif;letter-spacing:0px;word-spacing:0px;fill:#000000;fill-opacity:1;stroke:none;stroke-width:0.203348"
         x="173.30684"
         y="726.15344"
         id="text35874-0-1"><tspan
           sodipodi:role="line"
           id="tspan35872-9-29"
           style="stroke-width:0.203348"
           x="173.30684"
           y="726.15344">t</tspan></text>
      <path
         style="fill:none;stroke:#000000;stroke-width:0.9;stroke-linecap:round;stroke-linejoin:round;stroke-miterlimit:4;stroke-dasharray:none;stroke-opacity:1"
         d="m -40.183587,687.75066 v 34.54035"
         id="path1416-3-3" />
    </g>
    <g
       id="g175136-9-6-6-9"
       transform="translate(11.378173,-143.02646)"
       style="stroke:#000000">
      <text
         xml:space="preserve"
         style="font-size:5.64444px;line-height:1.25;font-family:sans-serif;-inkscape-font-specification:sans-serif;letter-spacing:0px;word-spacing:0px;fill:#000000;stroke:#000000;stroke-width:0.264583"
         x="-65.348045"
         y="280.34042"
         id="text172541-5-3-0-1-2"><tspan
           sodipodi:role="line"
           id="tspan172539-9-3-6-8-0"
           style="fill:#000000;stroke:#000000;stroke-width:0.264583"
           x="-65.348045"
           y="280.34042">Q</tspan></text>
    </g>
    <g
       id="g175136-9-6-6-9-1"
       transform="translate(11.378173,-109.15958)"
       style="stroke:#000000">
      <text
         xml:space="preserve"
         style="font-size:5.64444px;line-height:1.25;font-family:sans-serif;-inkscape-font-specification:sans-serif;letter-spacing:0px;word-spacing:0px;fill:#000000;stroke:#000000;stroke-width:0.264583"
         x="-65.348045"
         y="280.34042"
         id="text172541-5-3-0-1-2-9"><tspan
           sodipodi:role="line"
           id="tspan172539-9-3-6-8-0-4"
           style="fill:#000000;stroke:#000000;stroke-width:0.264583"
           x="-65.348045"
           y="280.34042">Q</tspan></text>
    </g>
    <g
       id="g175136-9-6-6"
       transform="translate(11.379607,-177.46416)"
       style="stroke:#000000">
      <text
         xml:space="preserve"
         style="font-size:5.64444px;line-height:1.25;font-family:sans-serif;-inkscape-font-specification:sans-serif;letter-spacing:0px;word-spacing:0px;fill:#000000;stroke:#000000;stroke-width:0.264583"
         x="-66.877785"
         y="280.00214"
         id="text172541-5-3-0-1"><tspan
           sodipodi:role="line"
           id="tspan172539-9-3-6-8"
           style="fill:#000000;stroke:#000000;stroke-width:0.264583"
           x="-66.877785"
           y="280.00214">Uc</tspan></text>
    </g>
    <g
       id="g1570-6"
       transform="translate(-4.2157047,-614.20553)">
      <path
         style="fill:none;stroke:#000000;stroke-width:0.9;stroke-linecap:round;stroke-linejoin:bevel;stroke-miterlimit:4;stroke-dasharray:none;stroke-opacity:1"
         d="M -44.562601,718.02394 H 178.52117"
         id="path32560-7" />
      <path
         style="fill:none;stroke:#000000;stroke-width:0.9;stroke-linecap:round;stroke-linejoin:bevel;stroke-miterlimit:4;stroke-dasharray:none;stroke-opacity:1"
         d="m 178.52117,718.02394 -1.90829,1.10172"
         id="path32755-5" />
      <path
         style="fill:none;stroke:#000000;stroke-width:0.9;stroke-linecap:round;stroke-linejoin:bevel;stroke-miterlimit:4;stroke-dasharray:none;stroke-opacity:1"
         d="m 176.61288,716.92222 1.90829,1.10172"
         id="path32755-9-3" />
      <text
         xml:space="preserve"
         style="font-style:normal;font-weight:normal;font-size:8.1339px;line-height:1.25;font-family:sans-serif;letter-spacing:0px;word-spacing:0px;fill:#000000;fill-opacity:1;stroke:none;stroke-width:0.203348"
         x="173.30684"
         y="726.15344"
         id="text35874-5"><tspan
           sodipodi:role="line"
           id="tspan35872-6"
           style="stroke-width:0.203348"
           x="173.30684"
           y="726.15344">t</tspan></text>
      <path
         style="fill:none;stroke:#000000;stroke-width:0.9;stroke-linecap:round;stroke-linejoin:round;stroke-miterlimit:4;stroke-dasharray:none;stroke-opacity:1"
         d="m -40.183587,687.75066 v 34.54035"
         id="path1416-2" />
    </g>
    <g
       id="g1570-9"
       transform="translate(-4.2157047,-579.66518)">
      <path
         style="fill:none;stroke:#000000;stroke-width:0.9;stroke-linecap:round;stroke-linejoin:bevel;stroke-miterlimit:4;stroke-dasharray:none;stroke-opacity:1"
         d="M -44.562601,718.02394 H 178.52117"
         id="path32560-1" />
      <path
         style="fill:none;stroke:#000000;stroke-width:0.9;stroke-linecap:round;stroke-linejoin:bevel;stroke-miterlimit:4;stroke-dasharray:none;stroke-opacity:1"
         d="m 178.52117,718.02394 -1.90829,1.10172"
         id="path32755-2" />
      <path
         style="fill:none;stroke:#000000;stroke-width:0.9;stroke-linecap:round;stroke-linejoin:bevel;stroke-miterlimit:4;stroke-dasharray:none;stroke-opacity:1"
         d="m 176.61288,716.92222 1.90829,1.10172"
         id="path32755-9-7" />
      <text
         xml:space="preserve"
         style="font-style:normal;font-weight:normal;font-size:8.1339px;line-height:1.25;font-family:sans-serif;letter-spacing:0px;word-spacing:0px;fill:#000000;fill-opacity:1;stroke:none;stroke-width:0.203348"
         x="173.30684"
         y="726.15344"
         id="text35874-0"><tspan
           sodipodi:role="line"
           id="tspan35872-9"
           style="stroke-width:0.203348"
           x="173.30684"
           y="726.15344">t</tspan></text>
      <path
         style="fill:none;stroke:#000000;stroke-width:0.9;stroke-linecap:round;stroke-linejoin:round;stroke-miterlimit:4;stroke-dasharray:none;stroke-opacity:1"
         d="m -40.183587,687.75066 v 34.54035"
         id="path1416-3" />
    </g>
    <g
       id="g1570-9-2"
       transform="translate(-4.2157047,-545.12485)">
      <path
         style="fill:none;stroke:#000000;stroke-width:0.9;stroke-linecap:round;stroke-linejoin:bevel;stroke-miterlimit:4;stroke-dasharray:none;stroke-opacity:1"
         d="M -44.562601,718.02394 H 178.52117"
         id="path32560-1-3" />
      <path
         style="fill:none;stroke:#000000;stroke-width:0.9;stroke-linecap:round;stroke-linejoin:bevel;stroke-miterlimit:4;stroke-dasharray:none;stroke-opacity:1"
         d="m 178.52117,718.02394 -1.90829,1.10172"
         id="path32755-2-7" />
      <path
         style="fill:none;stroke:#000000;stroke-width:0.9;stroke-linecap:round;stroke-linejoin:bevel;stroke-miterlimit:4;stroke-dasharray:none;stroke-opacity:1"
         d="m 176.61288,716.92222 1.90829,1.10172"
         id="path32755-9-7-5" />
      <text
         xml:space="preserve"
         style="font-style:normal;font-weight:normal;font-size:8.1339px;line-height:1.25;font-family:sans-serif;letter-spacing:0px;word-spacing:0px;fill:#000000;fill-opacity:1;stroke:none;stroke-width:0.203348"
         x="173.30684"
         y="726.15344"
         id="text35874-0-9"><tspan
           sodipodi:role="line"
           id="tspan35872-9-2"
           style="stroke-width:0.203348"
           x="173.30684"
           y="726.15344">t</tspan></text>
      <path
         style="fill:none;stroke:#000000;stroke-width:0.9;stroke-linecap:round;stroke-linejoin:round;stroke-miterlimit:4;stroke-dasharray:none;stroke-opacity:1"
         d="m -40.183587,687.75066 v 34.54035"
         id="path1416-3-2" />
    </g>
    <text
       xml:space="preserve"
       style="font-size:6.35px;line-height:1.25;font-family:sans-serif;-inkscape-font-specification:sans-serif;letter-spacing:0px;word-spacing:0px;fill:#ff0000;stroke-width:0.264583"
       x="35.063686"
       y="32.189358"
       id="text191475-9-6"><tspan
         sodipodi:role="line"
         id="tspan191473-2-3"
         style="font-size:6.35px;fill:#ff0000;stroke-width:0.264583"
         x="35.063686"
         y="32.189358">555 - montage monostable : schéma temporel</tspan></text>
    <path
       style="fill:none;stroke:#0000ff;stroke-width:0.733525;stroke-linecap:round;stroke-linejoin:round;stroke-miterlimit:4;stroke-dasharray:none;stroke-opacity:1"
       d="M -18.978375,137.69504 V 112.61279 H 43.93139 v 24.99216"
       id="path9924-5" />
    <path
       style="fill:none;stroke:#0000ff;stroke-width:0.733525;stroke-linecap:round;stroke-linejoin:round;stroke-miterlimit:4;stroke-dasharray:none;stroke-opacity:1"
       d="m -18.741158,103.62966 c 17.9203642,-9.74815 30.048628,-16.37961 62.603914,-18.0852 0.963044,8.46184 2.67038,14.94278 5.040916,18.1882"
       id="path9924-5-6"
       sodipodi:nodetypes="ccc" />
    <path
       style="fill:none;stroke:#0000ff;stroke-width:0.733525;stroke-linecap:round;stroke-linejoin:round;stroke-miterlimit:4;stroke-dasharray:none;stroke-opacity:1"
       d="m -18.598839,206.92957 v -25.08225 h 62.909765 v 24.99216"
       id="path9924-5-0" />
    <g
       id="g1570"
       transform="translate(-4.2157047,-648.74588)">
      <path
         style="fill:none;stroke:#000000;stroke-width:0.9;stroke-linecap:round;stroke-linejoin:bevel;stroke-miterlimit:4;stroke-dasharray:none;stroke-opacity:1"
         d="M -44.562601,718.02394 H 178.52117"
         id="path32560" />
      <path
         style="fill:none;stroke:#000000;stroke-width:0.9;stroke-linecap:round;stroke-linejoin:bevel;stroke-miterlimit:4;stroke-dasharray:none;stroke-opacity:1"
         d="m 178.52117,718.02394 -1.90829,1.10172"
         id="path32755" />
      <path
         style="fill:none;stroke:#000000;stroke-width:0.9;stroke-linecap:round;stroke-linejoin:bevel;stroke-miterlimit:4;stroke-dasharray:none;stroke-opacity:1"
         d="m 176.61288,716.92222 1.90829,1.10172"
         id="path32755-9" />
      <text
         xml:space="preserve"
         style="font-style:normal;font-weight:normal;font-size:8.1339px;line-height:1.25;font-family:sans-serif;letter-spacing:0px;word-spacing:0px;fill:#000000;fill-opacity:1;stroke:none;stroke-width:0.203348"
         x="173.30684"
         y="726.15344"
         id="text35874"><tspan
           sodipodi:role="line"
           id="tspan35872"
           style="stroke-width:0.203348"
           x="173.30684"
           y="726.15344">t</tspan></text>
      <path
         style="fill:none;stroke:#000000;stroke-width:0.9;stroke-linecap:round;stroke-linejoin:round;stroke-miterlimit:4;stroke-dasharray:none;stroke-opacity:1"
         d="m -40.183587,687.75066 v 34.54035"
         id="path1416" />
    </g>
    <g
       id="g175136-9-6"
       transform="translate(17.324045,-210.86197)"
       style="fill:none;stroke:#000000">
      <text
         xml:space="preserve"
         style="font-size:5.64444px;line-height:1.25;font-family:sans-serif;-inkscape-font-specification:sans-serif;letter-spacing:0px;word-spacing:0px;fill:#000000;stroke:#000000;stroke-width:0.264583"
         x="-71.232437"
         y="279.37274"
         id="text172541-5-3-0"><tspan
           sodipodi:role="line"
           id="tspan172539-9-3-6"
           style="fill:#000000;stroke:#000000;stroke-width:0.264583"
           x="-71.232437"
           y="279.37274">S</tspan></text>
      <circle
         style="fill:none;fill-opacity:1;stroke:#000000;stroke-width:0.5;stroke-linecap:round;stroke-linejoin:round;stroke-miterlimit:4;stroke-dasharray:none;stroke-dashoffset:0"
         id="path173349-7-8-2"
         cx="-69.412048"
         cy="277.31808"
         r="5.229651" />
    </g>
    <path
       style="fill:none;stroke:#000000;stroke-width:0.9;stroke-linecap:butt;stroke-linejoin:miter;stroke-miterlimit:4;stroke-dasharray:none;stroke-opacity:1"
       d="m -53.934445,165.85878 h 4.041931"
       id="path7254" />
    <path
       style="fill:none;stroke:#0000ff;stroke-width:0.6;stroke-linecap:round;stroke-linejoin:round;stroke-miterlimit:4;stroke-dasharray:none;stroke-opacity:1"
       d="m -44.273874,147.05924 h 25.481642 v 26.00116"
       id="path10270" />
    <path
       style="fill:none;stroke:#0000ff;stroke-width:0.6;stroke-linecap:round;stroke-linejoin:round;stroke-miterlimit:4;stroke-dasharray:none;stroke-opacity:1"
       d="M 44.152785,172.35123 V 147.35909 H 166.89127"
       id="path10743" />
    <path
       style="fill:none;stroke:#000000;stroke-width:0.2;stroke-linecap:butt;stroke-linejoin:miter;stroke-miterlimit:4;stroke-dasharray:0.4, 0.8;stroke-dashoffset:0;stroke-opacity:1"
       d="m -19.390846,69.3295 0.792007,137.15724"
       id="path12114" />
    <path
       style="fill:none;stroke:#000000;stroke-width:0.2;stroke-linecap:butt;stroke-linejoin:miter;stroke-miterlimit:4;stroke-dasharray:0.4, 0.8;stroke-dashoffset:0;stroke-opacity:1"
       d="M 43.611643,69.3295 44.40365,206.48674"
       id="path12114-1" />
    <path
       style="fill:none;stroke:#000000;stroke-width:0.264583;stroke-linecap:butt;stroke-linejoin:miter;stroke-miterlimit:4;stroke-dasharray:0.793749, 0.793749;stroke-dashoffset:0;stroke-opacity:1"
       d="M 43.862755,85.54446 H -45.740839"
       id="path12341" />
    <text
       xml:space="preserve"
       style="font-style:normal;font-weight:normal;font-size:4.23333px;line-height:1.25;font-family:sans-serif;letter-spacing:0px;word-spacing:0px;fill:#000000;fill-opacity:1;stroke:none;stroke-width:0.264583"
       x="-61.517498"
       y="86.65963"
       id="text14171"><tspan
         sodipodi:role="line"
         id="tspan14169"
         style="font-size:4.23333px;stroke-width:0.264583"
         x="-61.517498"
         y="86.65963">2/3 Vcc</tspan></text>
    <g
       id="g26723"
       transform="translate(-14.466625,-641.46418)">
      <text
         xml:space="preserve"
         style="font-style:normal;font-weight:normal;font-size:10.5833px;line-height:1.25;font-family:sans-serif;letter-spacing:0px;word-spacing:0px;fill:#000000;fill-opacity:1;stroke:none;stroke-width:0.264583"
         x="-9.087676"
         y="681.93878"
         id="text18511"><tspan
           sodipodi:role="line"
           id="tspan18509"
           style="stroke-width:0.264583"
           x="-9.087676"
           y="681.93878"><tspan
   style="font-size:4.23333px"
   id="tspan23188">Appui sur</tspan> </tspan></text>
      <g
         id="g175136-9-6-0"
         transform="matrix(0.43580655,0,0,0.43580655,44.631241,559.64496)"
         style="fill:none;stroke:#000000">
        <text
           xml:space="preserve"
           style="font-size:5.64444px;line-height:1.25;font-family:sans-serif;-inkscape-font-specification:sans-serif;letter-spacing:0px;word-spacing:0px;fill:#000000;stroke:#000000;stroke-width:0.264583"
           x="-71.232437"
           y="279.37274"
           id="text172541-5-3-0-6"><tspan
             sodipodi:role="line"
             id="tspan172539-9-3-6-3"
             style="fill:#000000;stroke:#000000;stroke-width:0.264583"
             x="-71.232437"
             y="279.37274">S</tspan></text>
        <circle
           style="fill:none;fill-opacity:1;stroke:#000000;stroke-width:0.5;stroke-linecap:round;stroke-linejoin:round;stroke-miterlimit:4;stroke-dasharray:none;stroke-dashoffset:0"
           id="path173349-7-8-2-2"
           cx="-69.412048"
           cy="277.31808"
           r="5.229651" />
      </g>
    </g>
    <text
       xml:space="preserve"
       style="font-style:normal;font-weight:normal;font-size:4.23333px;line-height:1.25;font-family:sans-serif;letter-spacing:0px;word-spacing:0px;fill:#000000;fill-opacity:1;stroke:none;stroke-width:0.264583"
       x="-17.989014"
       y="136.93643"
       id="text30076"><tspan
         sodipodi:role="line"
         id="tspan30074"
         style="font-size:4.23333px;stroke-width:0.264583"
         x="-17.989014"
         y="136.93643">S</tspan></text>
    <text
       xml:space="preserve"
       style="font-style:normal;font-weight:normal;font-size:4.23333px;line-height:1.25;font-family:sans-serif;letter-spacing:0px;word-spacing:0px;fill:#000000;fill-opacity:1;stroke:none;stroke-width:0.264583"
       x="44.809967"
       y="137.29567"
       id="text30076-0"><tspan
         sodipodi:role="line"
         id="tspan30074-6"
         style="font-size:4.23333px;stroke-width:0.264583"
         x="44.809967"
         y="137.29567">R</tspan></text>
    <path
       style="fill:none;stroke:#0000ff;stroke-width:0.9;stroke-linecap:round;stroke-linejoin:round;stroke-opacity:1;stroke-miterlimit:4;stroke-dasharray:none"
       d="m -44.123575,42.681278 h 24.733423 V 69.20884"
       id="path77181" />
    <path
       style="fill:none;stroke:#0000ff;stroke-width:0.9;stroke-linecap:round;stroke-linejoin:round;stroke-opacity:1;stroke-miterlimit:4;stroke-dasharray:none"
       d="M -16.789201,69.233739 V 42.66325 H 163.79082"
       id="path77296" />
  </g>
</svg>
